additional repositories
exploitation tools,armitage,backdoor-factory,beef-xss,cisco-auditing-tool,cisco-global-exploiter,cisco-ocs,cisco-torch,commix,crackle,jboss-autopwn,linux-exploit-suggester,maltego-teeth,set,shellnoob,sqlmap,thc-ipv6,yersinia
forensics tools,binwalk,bulk-extractor,capstone-tool,chntpw,cuckoo,dc3dd,ddrescue,dumpzilla,extundelete,foremost,galleta,guymager,iphone-backup-analyzer,p0f,pdf-parser,pdfid,pdgmail,peepdf,python3-distorm3,regripper,volatility,xplico
hardware hacking,android-sdk,apktool,arduino,dex2jar,sakis3g,smali
information gathering,acccheck,ace-voip,amap,automater,bing-ip2hosts,braa,cdpsnarf,cisco-torch,cookie-cadger,copy-router-config,dmitry,dnmap,dnsenum,dnsmap,dnsrecon,dnstracer,dnswalk,dotdotpwn,enum4linux,enumiax,exploitdb,fierce,firewalk,fragroute,fragrouter,ghost-phisher,golismero,goofile,hping3,intrace,ismtp,lbd,maltego-teeth,masscan,metagoofil,miranda,nmap,ntopng,p0f,parsero,recon-ng,set,smtp-user-enum,snmpcheck,sslcaudit,sslsplit,sslstrip,sslyze,thc-ipv6,theharvester,tlssled,twofi,urlcrazy,wireshark,wol-e,xplico
maintaining access,cryptcat,cymothoa,dbd,dns2tcp,http-tunnel,httptunnel,intersect,nishang,polenum,powersploit,pwnat,ridenum,sbd,u3-pwn,webshells,weevely
network analysis,anonsurf,arp-scan,bettercap,ettercap-text-only,macchanger,netcat-openbsd,openvpn,proxychains,snort,sqlmap,tcpdump,theharvester,traceroute
password attacks,acccheck,burpsuite,cewl,chntpw,cisco-auditing-tool,cmospwd,creddump,crunch,findmyhash,gpp-decrypt,hash-identifier,hexorbase,hydra,john,johnny,keimpx,maltego-teeth,maskprocessor,multiforcer,ncrack,oclgausscrack,pack,patator,polenum,rainbowcrack,rcracki-mt,rsmangler,statsprocessor,thc-pptp-bruter,truecrack,webscarab,wordlists,zaproxy
reporting tools,cutycapt,dos2unix,dradis,keepnote,magictree,metagoofil,nipper-ng,pipal
reverse engineering,apktool,dex2jar,edb-debugger,jad,javasnoop,jd-gui,ollydbg,python-distorm3,smali,valgrind,yara
sniffing and spoofing,burpsuite,dnschef,fiked,hamster-sidejack,hexinject,iaxflood,inviteflood,ismtp,isr-evilgrade,mitmproxy,ohrwurm,protos-sip,rebind,responder,rtpbreak,rtpinsertsound,rtpmixsound,sctpscan,siparmyknife,sipp,sipvicious,sniffjoke,sslsplit,sslstrip,thc-ipv6,voiphopper,webscarab,wifi-honey,wireshark,xspy,yersinia,zaproxy
stress testing,dhcpig,funkload,iaxflood,inviteflood,ipv6-toolkit,mdk3,reaver,rtpflood,slowhttptest,t50,termineter,thc-ipv6,thc-ssl-dos
vulnerability analysis,bbqsql,bed,cisco-auditing-tool,cisco-global-exploiter,cisco-ocs,cisco-torch,copy-router-config,commix,doona,dotdotpwn,greenbone-security-assistant,python3-gsd,hexorbase,jsql-injection,lynis,nmap,ohrwurm,openvas-administrator,openvas-cli,openvas-manager,openvas-scanner,oscanner,powerfuzzer,sfuzz,sidguesser,siparmyknife,sqlmap,sqlninja,sqlsus,thc-ipv6,tnscmd10g,unix-privesc-check,yersinia
web applications,apache-users,arachni,bbqsql,blindelephant,burpsuite,cutycapt,davtest,deblaze,dirb,dirbuster,fimap,funkload,grabber,jboss-autopwn,joomscan,jsql,maltego-teeth,padbuster,paros,parsero,plecost,powerfuzzer,proxystrike,recon-ng,skipfish,sqlmap,sqlninja,sqlsus,ua-tester,uniscan,vega,w3af,webscarab,websploit,wfuzz,wpscan,xsser,zaproxy
wireless attack,aircrack-ng,airgeddon,asleap,bluelog,blueranger,bluesnarfer,bully,cowpatty,crackle,eapmd5pass,fern-wifi-cracker,ghost-phisher,giskismet,hostapd,iw,kalibrate-rtl,killerbee,kismet,mdk3,mdk4,mfcuk,mfoc,mfterm,multimon-ng,pixiewps,reaver,redfang,rtlsdr-scanner,spooftooph,wifi-honey,wifitap,wifite
extra packages,squid3